Given name;Last name;Study programme
Eirik Bergli;Amrud;Bachelor in IT-Operations and Information Security (BITSEC) (Autumn 2017, Campus Gjøvik)
Adrian;Andersen;Bachelor in IT-Operations and Information Security (BITSEC) (Autumn 2017, Campus Gjøvik)
Aleksander;Azizi;Bachelor in Programming (BPROG) (Autumn 2017, Campus Gjøvik)
Job Nestor;Bahner;Bachelor in IT-Operations and Information Security (BITSEC) (Autumn 2017, Campus Gjøvik)
Stian Næss;Bratlie;Bachelor of Engineering in Computer Science (BIDAT) (Autumn 2017 Bach.ingeniørfag Data - H17-Y-vei, Campus Gjøvik)
Mari;Fjermestad;Bachelor in IT-Operations and Information Security (BITSEC) (Autumn 2017, Campus Gjøvik)
Jostein;Furnes;Bachelor of Engineering in Computer Science (BIDAT) (Autumn 2017 Bach.ingeniørfag Data - H17-Ord.opptak, Campus Gjøvik)
Fredrik Mikal Meyer;Gløsen;Bachelor in Programming (BPROG) (Autumn 2017, Campus Gjøvik)
Kjetil;Grosberghaugen;Bachelor of Engineering in Computer Science (BIDAT) (Autumn 2017 Bach.ingeniørfag Data - H17-Ord.opptak, Campus Gjøvik)
Knut;Grøstad;Bachelor of Engineering in Computer Science (BIDAT) (Autumn 2016 Bach.ingeniørfag Data - H16, Campus Gjøvik)
Ronny André;Gulberg;Bachelor in Programming (BPROG) (Autumn 2017, Campus Gjøvik)
André Gyrud;Gunhildberget;Bachelor in Programming (BPROG) (Autumn 2017, Campus Gjøvik)
Odd Arne;Hagelund;Bachelor in Software Engineering (BPU) (Autumn 2015 Bachelor i programvareutvikling-H15, Campus Gjøvik)
Sebastian Nagelhus;Hellander;Bachelor in IT-Operations and Information Security (BITSEC) (Autumn 2017, Campus Gjøvik)
Theodor;Hoff;Bachelor of Engineering in Computer Science (BIDAT) (Autumn 2018, Campus Gjøvik)
Marius;Håkonsen;Bachelor in Programming (BPROG) (Autumn 2017, Campus Gjøvik)
Jan-Christian Thian;Jakobsen;Bachelor in IT-Operations and Information Security (BITSEC) (Autumn 2017, Campus Gjøvik)
Amund;Johansen;Bachelor of Engineering in Computer Science (BIDAT) (Autumn 2016 Bach.ingeniørfag Data - H16, Campus Gjøvik)
William Emanuel Skreien;Kaaby;Bachelor of Engineering in Computer Science (BIDAT) (Autumn 2017 Bach.ingeniørfag Data - H17-Ord.opptak, Campus Gjøvik)
Vegard Elgesem;Kostveit;Bachelor of Engineering in Computer Science (BIDAT) (Autumn 2016 Bach.ingeniørfag Data - TRES- H16, Campus Gjøvik)
Per Ivar;Kraggerud;Bachelor of Engineering in Computer Science (BIDAT) (Autumn 2017 Bach.ingeniørfag Data - H17-Y-vei, Campus Gjøvik)
Mikkel Andreas;Kvande;Bachelor of Engineering in Computer Science (BIDAT) (Autumn 2017 Bach.ingeniørfag Data - H17-Y-vei, Campus Gjøvik)
Ole Kristian;Larsen;Bachelor in Programming (BPROG) (Autumn 2017, Campus Gjøvik)
Albert Mikolaj;Lesniewski;Bachelor of Engineering in Computer Science (BIDAT) (Autumn 2017 Bach.ingeniørfag Data - H17-Ord.opptak, Campus Gjøvik)
Martin Framstad;Lokrheim;Bachelor of Engineering in Computer Science (BIDAT) (Autumn 2017 Bach.ingeniørfag Data - H17-Ord.opptak, Campus Gjøvik)
Jonas;Melby;Bachelor of Engineering in Computer Science (BIDAT) (Autumn 2017 Bach.ingeniørfag Data - H17-Ord.opptak, Campus Gjøvik)
Maren Sofie Tinholt;Melheim;Bachelor in IT-Operations and Information Security (BITSEC) (Autumn 2017, Campus Gjøvik)
Runar;Moen;Bachelor in IT-Operations and Information Security (BITSEC) (Autumn 2017, Campus Gjøvik)
Nikolai;Mork;Bachelor of Engineering in Computer Science (BIDAT) (Autumn 2017, Campus Gjøvik)
Johannes;Möckel;Bachelor in IT-Operations and Information Security (BITSEC) (Autumn 2017, Campus Gjøvik)
Magnus;Nordling;Bachelor of Engineering in Computer Science (BIDAT) (Autumn 2017 Bach.ingeniørfag Data - H17-Ord.opptak, Campus Gjøvik)
Henrik Rudi;Næss;Bachelor of Engineering in Computer Science (BIDAT) (Autumn 2017 Bach.ingeniørfag Data - H17-Ord.opptak, Campus Gjøvik)
Magnus Sopp;Onsrud;Bachelor in IT-Operations and Information Security (BITSEC) (Autumn 2017, Campus Gjøvik)
Ugnius;Raizys;Bachelor in Information Security (BIS) (Autumn 2014 Bachelor i informasjonssikkerhet - H14, Campus Gjøvik)
Anders Hoelseth;Rebner;Bachelor of Engineering in Computer Science (BIDAT) (Autumn 2017 Bach.ingeniørfag Data - H17-Ord.opptak, Campus Gjøvik)
Fredrik Wilhelm;Reite;Bachelor in IT-Operations and Information Security (BITSEC) (Autumn 2017, Campus Gjøvik)
Philip;Ricanek;Bachelor in IT-Operations and Information Security (BITSEC) (Autumn 2017, Campus Gjøvik)
Alex;Rogatskiy;Bachelor of Engineering in Computer Science (BIDAT) (Autumn 2017, Campus Gjøvik)
Stig André;Rosenlund;Bachelor of Engineering in Computer Science (BIDAT) (Autumn 2017 Bach.ingeniørfag Data - H17-Y-vei, Campus Gjøvik)
Petter;Sagvold;Bachelor of Engineering in Computer Science (BIDAT) (Autumn 2017 Bach.ingeniørfag Data - H17-Ord.opptak, Campus Gjøvik)
Håkon;Schia;Bachelor in Programming (BPROG) (Autumn 2017, Campus Gjøvik)
Vegard;Skaansar;Bachelor in Programming (BPROG) (Autumn 2017, Campus Gjøvik)
Jone Martin;Skaara;Bachelor in Programming (BPROG) (Autumn 2016, Campus Gjøvik)
Eirik Remen;Skarbø;Bachelor in IT-Operations and Information Security (BITSEC) (Autumn 2017, Campus Gjøvik)
Sindre;Solheim;Bachelor of Engineering in Computer Science (BIDAT) (Autumn 2017 Bach.ingeniørfag Data - H17-Ord.opptak, Campus Gjøvik)
Martin Holltrø;Spongsveen;Bachelor in Software Engineering (BPU) (Autumn 2014 Bachelor i programvareutvikling-H14, Campus Gjøvik)
Øyvind;Stendal;Bachelor of Engineering in Computer Science (BIDAT) (Autumn 2017 Bach.ingeniørfag Data - H17-Ord.opptak, Campus Gjøvik)
Johan;Strand;Bachelor of Engineering in Computer Science (BIDAT) (Autumn 2017 Bach.ingeniørfag Data - H17-Ord.opptak, Campus Gjøvik)
Roald;Strangstadstuen;Bachelor of Engineering in Computer Science (BIDAT) (Autumn 2017 Bach.ingeniørfag Data - H17-Ord.opptak, Campus Gjøvik)
Viktor Kind;Svendsen;Bachelor in Programming (BPROG) (Autumn 2017, Campus Gjøvik)
Stian Bakken;Sørslett;Bachelor in Programming (BPROG) (Autumn 2017, Campus Gjøvik)
Knut Jørgen;Totland;Bachelor in IT-Operations and Information Security (BITSEC) (Autumn 2017, Campus Gjøvik)
Malene;Vassenden;Bachelor in IT-Operations and Information Security (BITSEC) (Autumn 2017, Campus Gjøvik)
Franz Arneberg;Vrolijk;Bachelor of Engineering in Computer Science (BIDAT) (Autumn 2017 Bach.ingeniørfag Data - H17-Ord.opptak, Campus Gjøvik)
Joachim;Winsnes;Bachelor in IT-Operations and Information Security (BITSEC) (Autumn 2017, Campus Gjøvik)
Elisabeth;Wåde-Bye;Bachelor in Programming (BPROG) (Autumn 2017, Campus Gjøvik)
Abubakar Ahmed;Yusuf;Bachelor in Programming (BPROG) (Autumn 2017, Campus Gjøvik)
Jan;Zimmer;Bachelor in Programming (BPROG) (Autumn 2017, Campus Gjøvik)
Thomas;Østli;Bachelor of Game Programming (BSP) (Autumn 2015 Bachelor i spillprogrammering H15, Campus Gjøvik)
Sindre;Østrem;Bachelor of Engineering in Computer Science (BIDAT) (Autumn 2016 Bach.ingeniørfag Data - H16, Campus Gjøvik)
